<?xml version="1.0" encoding="UTF-8"?>
<svg width="100pt" height="100pt" version="1.1" viewBox="0 0 100 100" xmlns="http://www.w3.org/2000/svg">
 <path fill="#4591a2" d="m37.5 62c-0.80078 1.6992-1.6992 5-1.6992 5s-10.301 3.5-16.801 6.6016c-3.6992 1.6992-6 5.3984-6 9.3984 0 0 3 4 38.699 4 32.301 0 35.301-4 35.301-4 0-4.1016-2.3984-7.6992-6-9.3984-6.5-3-16.801-6.5-16.801-6.5s-0.80078-3.3984-1.6992-5c-0.80078-1.6992-1.6992-0.80078-1.6992-0.80078l0.19922-5.8984c3.3984-2.5 3.3984-8.3984 3.3984-8.3984s0.80078-0.80078 1.6992-5c0.80078-4.1992-0.80078-4.1992-0.80078-4.1992 0.003906-0.003907 2.7031-9.4062 0.70312-13.406-1.5-3.1016-3.6016-5.6016-7-7 0 0-7.6992-3.5-11-3-7 1-7 6-7 6-3.3984 1.3984-4.6992-0.19922-6 3-3.3984 8.3984-0.10156 14.102-0.10156 14.102s-1.6992 0-0.80078 4.1992c0.80078 4.1992 1.6992 5 1.6992 5s0 5.8984 3.3984 8.3984l0.19922 5.8984c-0.19531 0.10547-0.99609-0.69531-1.8945 1.0039z"/>
</svg>
