
<svg width="53px" height="53px" viewBox="0 0 53 53" version="1.1" xmlns="http://www.w3.org/2000/svg" xmlns:xlink="http://www.w3.org/1999/xlink">
    <!-- Generator: Sketch 45.1 (43504) - http://www.bohemiancoding.com/sketch -->
    <desc>Created with Sketch.</desc>
    <defs>
        <filter x="-13.2%" y="-13.2%" width="127.1%" height="127.3%" filterUnits="objectBoundingBox" id="filter-1">
            <feOffset dx="0" dy="0" in="SourceAlpha" result="shadowOffsetOuter1"></feOffset>
            <feGaussianBlur stdDeviation="2" in="shadowOffsetOuter1" result="shadowBlurOuter1"></feGaussianBlur>
            <feColorMatrix values="0 0 0 0 0   0 0 0 0 0   0 0 0 0 0  0 0 0 0.0689254982 0" type="matrix" in="shadowBlurOuter1" result="shadowMatrixOuter1"></feColorMatrix>
            <feMerge>
                <feMergeNode in="shadowMatrixOuter1"></feMergeNode>
                <feMergeNode in="SourceGraphic"></feMergeNode>
            </feMerge>
        </filter>
    </defs>
    <g id="Who-We-Are" stroke="none" stroke-width="1" fill="none" fill-rule="evenodd">
        <g transform="translate(-942.000000, -1152.000000)" id="Mission" fill="#6EC05D">
            <g transform="translate(85.000000, 836.000000)">
                <g id="Video">
                    <g transform="translate(702.000000, 251.000000)">
                        <g id="Group-9" transform="translate(146.281596, 68.732283)">
                            <g id="Page-1" filter="url(#filter-1)" transform="translate(12.206208, 0.000000)">
                                <path d="M22.8126386,0.417988189 C10.461796,0.417988189 0.413028825,10.4521024 0.413028825,22.7775591 C0.413028825,35.1062126 10.461796,45.1371299 22.8126386,45.1371299 C35.1634812,45.1371299 45.2090466,35.1062126 45.2090466,22.7775591 C45.2090466,10.4521024 35.1634812,0.417988189 22.8126386,0.417988189 Z M43.5369202,22.7775591 C43.5369202,34.1847205 34.2405698,43.4667756 22.8126386,43.4667756 C11.3847073,43.4667756 2.08835698,34.1847205 2.08835698,22.7775591 C2.08835698,11.3703976 11.3879091,2.08514567 22.8126386,2.08514567 C34.2373681,2.08514567 43.5369202,11.3703976 43.5369202,22.7775591 Z" id="Fill-1"></path>
                                <path d="M33.1623725,21.875248 L17.8474878,14.2299803 C17.4440643,14.0357717 16.9565942,14.1045039 16.6404191,14.4137992 C16.44351,14.6136024 16.3338492,14.8789409 16.3338492,15.1690551 L16.3338492,30.3884606 C16.3338492,30.9790787 16.7812971,31.4442205 17.3536142,31.4442205 C17.5225078,31.4442205 17.6914013,31.4034606 17.8506896,31.3251378 L33.1623725,23.6766732 C33.5313769,23.495252 33.7530998,23.1587835 33.7530998,22.7775591 C33.7530998,22.3963346 33.5345787,22.0598661 33.1623725,21.875248 Z M31.2236984,22.7775591 L18.0099778,29.3742598 L18.0099778,16.1840551 L31.2236984,22.7775591 Z" id="Fill-2"></path>
                            </g>
                        </g>
                    </g>
                </g>
            </g>
        </g>
    </g>
</svg>