<?xml version="1.0" encoding="UTF-8"?>
<svg width="100pt" height="100pt" version="1.1" viewBox="0 0 100 100" xmlns="http://www.w3.org/2000/svg">
 <g>
  <path fill="#ffffff" d="m18 47h11v4h-11z"/>
  <path fill="#ffffff" d="m80.5 38h-4.5v-19h-50v19h-5.5c-7.4453 0-13.5 5.4102-13.5 12.059v19.051c0 6.4531 5.8672 11.711 13.152 11.875l-1.7344 7.0156h66.613l-2.2188-7.1875c6.3438-0.96875 11.188-5.8438 11.188-11.703v-19.051c0-6.6484-6.0547-12.059-13.5-12.059zm-51.5-16h44v16h-44zm-6.75 63l5.9258-24h45.387l7.4062 24zm68.75-15.891c0 4.4922-3.9609 8.2109-9.082 8.8008l-6.1445-19.91h-49.949l-4.9375 20h-0.38672c-5.7891 0-10.5-3.9883-10.5-8.8906v-19.051c0-4.9102 4.8086-9.0586 10.5-9.0586h60c5.6914 0 10.5 4.1484 10.5 9.0586z"/>
  <path fill="#ffffff" d="m29 78h37v3h-37z"/>
  <path fill="#ffffff" d="m31 72h32v3h-32z"/>
  <path fill="#ffffff" d="m32 66h32v3h-32z"/>
 </g>
</svg>
