
<svg width="15px" height="15px" viewBox="0 0 15 15" version="1.1" xmlns="http://www.w3.org/2000/svg" xmlns:xlink="http://www.w3.org/1999/xlink">
    <!-- Generator: Sketch 45.1 (43504) - http://www.bohemiancoding.com/sketch -->
    <desc>Created with Sketch.</desc>
    <defs></defs>
    <g id="Home" stroke="none" stroke-width="1" fill="none" fill-rule="evenodd">
        <g transform="translate(-461.000000, -60.000000)" id="Menu-Open" fill="#FFFFFF">
            <g transform="translate(80.000000, -16.000000)">
                <g id="Account-Access" transform="translate(381.000000, 76.000000)">
                    <path d="M7.49735648,0 C3.36978956,0 0.00651546369,3.36303307 7.76693158e-06,7.49710769 C-0.00288454274,9.53739114 0.802141649,11.5154899 2.20876825,12.9250088 C3.54477429,14.2629431 5.3204114,15 7.20812552,15 C7.3088743,15 7.41058719,14.9983128 7.51230008,14.9934923 C11.7075953,14.822123 14.9944642,11.5287463 14.9944642,7.49710769 C14.9944642,3.36303307 11.6314311,0 7.49735648,0 Z M7.48217186,14.271379 C7.38985897,14.2752354 7.29851019,14.2769226 7.20812552,14.2769226 C5.71400655,14.2769226 4.29797994,13.7611274 3.16154326,12.81486 C3.16154326,12.8073882 3.16347147,12.8006395 3.16347147,12.7931677 C3.16347147,10.8931613 4.27725172,9.27660121 5.94563235,8.72682135 C6.3654993,8.94157534 6.83911501,9.06570363 7.34285894,9.06570363 C7.84563877,9.06570363 8.32021858,8.94157534 8.74008554,8.72682135 C10.4479944,9.28792943 11.6333593,10.9310023 11.6417952,12.7734036 C10.4988508,13.6555581 9.06209601,14.206302 7.48217186,14.271379 Z M7.34189484,8.34262622 C6.04348882,8.34262622 4.98707272,7.28621011 4.98707272,5.98804512 C4.98707272,4.6896391 6.04348882,3.633223 7.34189484,3.633223 C8.64030085,3.633223 9.69575286,4.69060321 9.69575286,5.98900922 C9.69575286,7.28621011 8.64030085,8.34262622 7.34189484,8.34262622 Z M12.321488,12.1737314 C12.1060109,10.4431661 11.0062102,8.93579073 9.44532705,8.22886204 C10.043071,7.66678986 10.4188303,6.87212778 10.4188303,5.98900922 C10.4188303,4.29242858 9.03847549,2.91110968 7.34093074,2.91110968 C5.64435009,2.91110968 4.26327222,4.29146447 4.26327222,5.98900922 C4.26327222,6.87212778 4.63975453,7.66751294 5.23773955,8.22982614 C3.72096416,8.92639072 2.68238396,10.4036379 2.47895818,12.160475 C1.35577792,10.9083459 0.719228772,9.22863708 0.722121081,7.49807179 C0.727905701,3.7621718 3.76700009,0.723077417 7.49639238,0.723077417 C11.2322924,0.723077417 14.2713868,3.7621718 14.2713868,7.49710769 C14.2713868,9.30962175 13.5324016,10.9563101 12.321488,12.1737314 Z" id="Page-1"></path>
                </g>
            </g>
        </g>
    </g>
</svg>
