<?xml version="1.0" standalone="no"?>
<!DOCTYPE svg PUBLIC "-//W3C//DTD SVG 1.1//EN" "http://www.w3.org/Graphics/SVG/1.1/DTD/svg11.dtd" >
<!--
2017-7-19: Created with FontForge (http://fontforge.org)
-->
<svg xmlns="http://www.w3.org/2000/svg" xmlns:xlink="http://www.w3.org/1999/xlink" version="1.1">
<metadata>
Created by FontForge 20160405 at Wed Jul 19 19:48:37 2017
 By Apache
Copyright (c) 2017, Apache
</metadata>
<defs>
<font id="Flaticon" horiz-adv-x="512" >
  <font-face 
    font-family="Flaticon"
    font-weight="400"
    font-stretch="normal"
    units-per-em="512"
    panose-1="2 0 5 3 0 0 0 0 0 0"
    ascent="448"
    descent="-64"
    bbox="-0.000264619 -64.0088 512 448"
    underline-thickness="25.6"
    underline-position="-51.2"
    unicode-range="U+0020-F102"
  />
    <missing-glyph />
    <glyph glyph-name="space" unicode=" " horiz-adv-x="200" 
 />
    <glyph glyph-name="uniF102" unicode="&#xf102;" 
d="M256 368.355l-91.0225 -91.0225l-39.8223 39.8223l130.845 130.845l130.845 -130.845l-39.8223 -39.8223zM256 15.6445l91.0225 91.0225l39.8223 -39.8223l-130.845 -130.845l-130.845 130.845l39.8223 39.8223z" />
    <glyph glyph-name="uniF101" unicode="&#xf101;" 
d="M501.092 -0.390625l-96.9482 96.918c-8.79883 8.79883 -20.8896 12.1816 -32.2979 10.3389l-21.5654 21.5723c61.9268 77.249 57.0947 190.315 -14.5186 261.929c-38.4043 38.4346 -88.748 57.6328 -139.054 57.6328c-50.3438 0 -100.688 -19.1982 -139.084 -57.6025
c-76.832 -76.832 -76.832 -201.367 0 -278.169c38.3965 -38.3965 88.7402 -57.5947 139.084 -57.5947c43.5244 0 87.0186 14.3965 122.844 43.1064l21.5732 -21.5723c-1.84375 -11.4004 1.54004 -23.4912 10.3389 -32.291l96.917 -96.9248
c7.25977 -7.31934 16.8018 -10.9609 26.3438 -10.9609c9.54297 0 19.085 3.6416 26.3438 10.9082c14.5713 14.5713 14.5713 38.1611 0.0234375 52.71zM196.708 98.0664c-40.9229 0 -79.4102 15.9443 -108.333 44.8604c-28.9463 28.9531 -44.8604 67.4102 -44.8604 108.325
c0 40.9229 15.9443 79.4111 44.8604 108.334c28.9531 28.9453 67.4102 44.8594 108.333 44.8594c40.915 0 79.4033 -15.9443 108.326 -44.8594c28.9453 -28.9531 44.8594 -67.4111 44.8594 -108.334c0 -40.915 -15.9443 -79.4023 -44.8594 -108.325
c-28.9531 -28.916 -67.4111 -44.8604 -108.326 -44.8604z" />
    <glyph glyph-name="uniF100" unicode="&#xf100;" 
d="M255.91 448c-140.888 0 -255.688 -114.792 -255.91 -255.901c-0.0986328 -69.6416 27.3799 -137.161 75.3926 -185.272c45.6025 -45.668 106.211 -70.8262 170.645 -70.8262c3.43945 0 6.91113 0.0576172 10.3828 0.22168
c143.199 5.84961 255.392 118.264 255.392 255.877c0 141.109 -114.792 255.901 -255.901 255.901zM255.392 -39.1299c-3.15137 -0.131836 -6.26953 -0.189453 -9.35449 -0.189453c-50.999 0 -99.333 17.6064 -138.123 49.9053
c0 0.254883 0.0654297 0.485352 0.0654297 0.740234c0 64.8535 38.0176 120.032 94.9648 138.798c14.3311 -7.33008 30.4971 -11.5664 47.6924 -11.5664c17.1611 0 33.3604 4.23633 47.6914 11.5664c58.2969 -19.1523 98.7568 -75.2354 99.0449 -138.123
c-39.0127 -30.1104 -88.0537 -48.9092 -141.981 -51.1309zM250.604 163.238c-44.3193 0 -80.3779 36.0586 -80.3779 80.3701c0 44.3184 36.0586 80.3779 80.3779 80.3779c44.3184 0 80.3447 -36.0918 80.3447 -80.4111c0 -44.2783 -36.0264 -80.3369 -80.3447 -80.3369z
M420.573 32.4697c-7.35449 59.0703 -44.8945 110.521 -98.1729 134.651c20.4033 19.1855 33.2295 46.3105 33.2295 76.4541c0 57.9102 -47.1162 105.059 -105.06 105.059c-57.9102 0 -105.051 -47.1162 -105.051 -105.059c0 -30.1436 12.8506 -57.293 33.2617 -76.4863
c-51.7725 -23.7764 -87.2227 -74.2002 -94.166 -134.166c-38.3379 42.7393 -60.0654 100.073 -59.9668 159.143c0.197266 127.52 103.932 231.254 231.229 231.254c127.519 0 231.253 -103.734 231.253 -231.221c0 -61.8672 -25.2236 -118.074 -66.5566 -159.629z" />
  </font>
</defs></svg>
